{
  "project_info": {
    "project_number": "52508131671",
    "firebase_url": "https://ifscmeventsapp-95d5b.firebaseio.com",
    "project_id": "ifscmeventsapp-95d5b",
    "storage_bucket": "ifscmeventsapp-95d5b.appspot.com"
  },
  "client": [
    {
      "client_info": {
        "mobilesdk_app_id": "1:52508131671:android:4eede3f16767100f",
        "android_client_info": {
          "package_name": "br.com.ifscmeventsapp"
        }
      },
      "oauth_client": [
        {
          "client_id": "52508131671-2184a17b9ndi79hhl5ntar1e6v18i8vr.apps.googleusercontent.com",
          "client_type": 1,
          "android_info": {
            "package_name": "br.com.ifscmeventsapp",
            "certificate_hash": "478790ff1908940b796280e148cd8b5de9f0d7a2"
          }
        },
        {
          "client_id": "52508131671-kvpovegrmedn1fa5asi3bjgij8a1e80h.apps.googleusercontent.com",
          "client_type": 3
        }
      ],
      "api_key": [
        {
          "current_key": "AIzaSyBmreP0xOcrNdBANQzv1pgZmcuYrVv-u0I"
        }
      ],
      "services": {
        "analytics_service": {
          "status": 1
        },
        "appinvite_service": {
          "status": 2,
          "other_platform_oauth_client": [
            {
              "client_id": "52508131671-kvpovegrmedn1fa5asi3bjgij8a1e80h.apps.googleusercontent.com",
              "client_type": 3
            }
          ]
        },
        "ads_service": {
          "status": 2
        }
      }
    }
  ],
  "configuration_version": "1"
}